{ 
  "checksum": "de6ec6fba3d1453993eee03f212fb169", 
  "roots": { 
    "bookmark_bar": { 
      "children": [ 
        { 
          "date_added": "13097368939115403", 
          "id": "6", 
          "name": "Portal Directa - Login", 
          "type": "url", 
          "url": "https://www.portaldirecta.com/b2b_hcm_la/b2b/init.do" 
        } 
      ], 
      "date_added": "13080243847196512", 
      "date_modified": "13097368939115403", 
      "id": "1", 
      "name": "Barra de marcadores", 
      "type": "folder" 
    }, 
    "other": { 
      "children": [], 
      "date_added": "13080243847360882", 
      "date_modified": "0", 
      "id": "4", 
      "name": "Otros marcadores", 
      "type": "folder" 
    }, 
    "synced": { 
      "children": [], 
      "date_added": "13080243847360894", 
      "date_modified": "0", 
      "id": "5", 
      "name": "Marcadores del móvil", 
      "type": "folder" 
    } 
  }, 
  "version": 1 
} 
